%YAML 1.1
%TAG !u! tag:unity3d.com,2011:
--- !u!74 &7400000
AnimationClip:
  m_ObjectHideFlags: 0
  m_PrefabParentObject: {fileID: 0}
  m_PrefabInternal: {fileID: 0}
  m_Name: PinballLogo
  serializedVersion: 4
  m_AnimationType: 2
  m_Compressed: 0
  m_UseHighQualityCurve: 1
  m_RotationCurves: []
  m_CompressedRotationCurves: []
  m_PositionCurves: []
  m_ScaleCurves: []
  m_FloatCurves: []
  m_PPtrCurves:
  - curve:
    - time: 0
      value: {fileID: 21300000, guid: f231fbccb262f42f8ab047c825dc7810, type: 3}
    - time: .0666666701
      value: {fileID: 21300000, guid: 6730c94bc386b43579ef84dc9dd524d0, type: 3}
    - time: .100000001
      value: {fileID: 21300002, guid: 6730c94bc386b43579ef84dc9dd524d0, type: 3}
    - time: .13333334
      value: {fileID: 21300004, guid: 6730c94bc386b43579ef84dc9dd524d0, type: 3}
    - time: .166666672
      value: {fileID: 21300006, guid: 6730c94bc386b43579ef84dc9dd524d0, type: 3}
    - time: .200000003
      value: {fileID: 21300008, guid: 6730c94bc386b43579ef84dc9dd524d0, type: 3}
    - time: .233333334
      value: {fileID: 21300010, guid: 6730c94bc386b43579ef84dc9dd524d0, type: 3}
    - time: .266666681
      value: {fileID: 21300012, guid: 6730c94bc386b43579ef84dc9dd524d0, type: 3}
    - time: .300000012
      value: {fileID: 21300014, guid: 6730c94bc386b43579ef84dc9dd524d0, type: 3}
    - time: .333333343
      value: {fileID: 21300016, guid: 6730c94bc386b43579ef84dc9dd524d0, type: 3}
    - time: .366666675
      value: {fileID: 21300018, guid: 6730c94bc386b43579ef84dc9dd524d0, type: 3}
    - time: .400000006
      value: {fileID: 21300020, guid: 6730c94bc386b43579ef84dc9dd524d0, type: 3}
    - time: .433333337
      value: {fileID: 21300022, guid: 6730c94bc386b43579ef84dc9dd524d0, type: 3}
    - time: .466666669
      value: {fileID: 21300024, guid: 6730c94bc386b43579ef84dc9dd524d0, type: 3}
    - time: .5
      value: {fileID: 21300026, guid: 6730c94bc386b43579ef84dc9dd524d0, type: 3}
    - time: .533333361
      value: {fileID: 21300028, guid: 6730c94bc386b43579ef84dc9dd524d0, type: 3}
    - time: .566666722
      value: {fileID: 21300030, guid: 6730c94bc386b43579ef84dc9dd524d0, type: 3}
    - time: .600000083
      value: {fileID: 21300032, guid: 6730c94bc386b43579ef84dc9dd524d0, type: 3}
    - time: .633333445
      value: {fileID: 21300034, guid: 6730c94bc386b43579ef84dc9dd524d0, type: 3}
    - time: .666666806
      value: {fileID: 21300036, guid: 6730c94bc386b43579ef84dc9dd524d0, type: 3}
    - time: .700000167
      value: {fileID: 21300038, guid: 6730c94bc386b43579ef84dc9dd524d0, type: 3}
    - time: .733333528
      value: {fileID: 21300040, guid: 6730c94bc386b43579ef84dc9dd524d0, type: 3}
    - time: .766666889
      value: {fileID: 21300042, guid: 6730c94bc386b43579ef84dc9dd524d0, type: 3}
    - time: .80000025
      value: {fileID: 21300044, guid: 6730c94bc386b43579ef84dc9dd524d0, type: 3}
    - time: .833333611
      value: {fileID: 21300046, guid: 6730c94bc386b43579ef84dc9dd524d0, type: 3}
    - time: .866666973
      value: {fileID: 21300048, guid: 6730c94bc386b43579ef84dc9dd524d0, type: 3}
    - time: .900000334
      value: {fileID: 21300050, guid: 6730c94bc386b43579ef84dc9dd524d0, type: 3}
    - time: .933333695
      value: {fileID: 21300052, guid: 6730c94bc386b43579ef84dc9dd524d0, type: 3}
    - time: .966667056
      value: {fileID: 21300054, guid: 6730c94bc386b43579ef84dc9dd524d0, type: 3}
    - time: 1.00000036
      value: {fileID: 21300056, guid: 6730c94bc386b43579ef84dc9dd524d0, type: 3}
    - time: 1.03333366
      value: {fileID: 21300058, guid: 6730c94bc386b43579ef84dc9dd524d0, type: 3}
    - time: 1.06666696
      value: {fileID: 21300060, guid: 6730c94bc386b43579ef84dc9dd524d0, type: 3}
    - time: 1.10000026
      value: {fileID: 21300062, guid: 6730c94bc386b43579ef84dc9dd524d0, type: 3}
    - time: 1.13333356
      value: {fileID: 21300064, guid: 6730c94bc386b43579ef84dc9dd524d0, type: 3}
    - time: 1.16666687
      value: {fileID: 21300066, guid: 6730c94bc386b43579ef84dc9dd524d0, type: 3}
    - time: 1.20000017
      value: {fileID: 21300068, guid: 6730c94bc386b43579ef84dc9dd524d0, type: 3}
    - time: 1.23333347
      value: {fileID: 21300070, guid: 6730c94bc386b43579ef84dc9dd524d0, type: 3}
    - time: 1.26666677
      value: {fileID: 21300072, guid: 6730c94bc386b43579ef84dc9dd524d0, type: 3}
    - time: 1.30000007
      value: {fileID: 21300074, guid: 6730c94bc386b43579ef84dc9dd524d0, type: 3}
    - time: 1.33333337
      value: {fileID: 21300076, guid: 6730c94bc386b43579ef84dc9dd524d0, type: 3}
    - time: 1.36666667
      value: {fileID: 21300078, guid: 6730c94bc386b43579ef84dc9dd524d0, type: 3}
    - time: 1.39999998
      value: {fileID: 21300080, guid: 6730c94bc386b43579ef84dc9dd524d0, type: 3}
    - time: 1.43333328
      value: {fileID: 21300082, guid: 6730c94bc386b43579ef84dc9dd524d0, type: 3}
    - time: 1.46666658
      value: {fileID: 21300084, guid: 6730c94bc386b43579ef84dc9dd524d0, type: 3}
    - time: 1.49999988
      value: {fileID: 21300086, guid: 6730c94bc386b43579ef84dc9dd524d0, type: 3}
    - time: 1.53333318
      value: {fileID: 21300088, guid: 6730c94bc386b43579ef84dc9dd524d0, type: 3}
    - time: 1.56666648
      value: {fileID: 21300090, guid: 6730c94bc386b43579ef84dc9dd524d0, type: 3}
    - time: 1.59999979
      value: {fileID: 21300092, guid: 6730c94bc386b43579ef84dc9dd524d0, type: 3}
    - time: 1.63333309
      value: {fileID: 21300094, guid: 6730c94bc386b43579ef84dc9dd524d0, type: 3}
    - time: 1.66666639
      value: {fileID: 21300096, guid: 6730c94bc386b43579ef84dc9dd524d0, type: 3}
    - time: 1.69999969
      value: {fileID: 21300098, guid: 6730c94bc386b43579ef84dc9dd524d0, type: 3}
    - time: 1.73333299
      value: {fileID: 21300100, guid: 6730c94bc386b43579ef84dc9dd524d0, type: 3}
    - time: 1.76666629
      value: {fileID: 21300102, guid: 6730c94bc386b43579ef84dc9dd524d0, type: 3}
    - time: 1.79999959
      value: {fileID: 21300104, guid: 6730c94bc386b43579ef84dc9dd524d0, type: 3}
    - time: 1.8333329
      value: {fileID: 21300106, guid: 6730c94bc386b43579ef84dc9dd524d0, type: 3}
    - time: 1.8666662
      value: {fileID: 21300108, guid: 6730c94bc386b43579ef84dc9dd524d0, type: 3}
    - time: 1.8999995
      value: {fileID: 21300110, guid: 6730c94bc386b43579ef84dc9dd524d0, type: 3}
    - time: 1.9333328
      value: {fileID: 21300112, guid: 6730c94bc386b43579ef84dc9dd524d0, type: 3}
    - time: 1.9666661
      value: {fileID: 21300114, guid: 6730c94bc386b43579ef84dc9dd524d0, type: 3}
    - time: 1.9999994
      value: {fileID: 21300116, guid: 6730c94bc386b43579ef84dc9dd524d0, type: 3}
    - time: 2.03333282
      value: {fileID: 21300118, guid: 6730c94bc386b43579ef84dc9dd524d0, type: 3}
    - time: 2.06666613
      value: {fileID: 21300120, guid: 6730c94bc386b43579ef84dc9dd524d0, type: 3}
    - time: 2.09999943
      value: {fileID: 21300122, guid: 6730c94bc386b43579ef84dc9dd524d0, type: 3}
    - time: 2.13333273
      value: {fileID: 21300124, guid: 6730c94bc386b43579ef84dc9dd524d0, type: 3}
    - time: 2.16666603
      value: {fileID: 21300126, guid: 6730c94bc386b43579ef84dc9dd524d0, type: 3}
    - time: 2.19999933
      value: {fileID: 21300128, guid: 6730c94bc386b43579ef84dc9dd524d0, type: 3}
    - time: 2.23333263
      value: {fileID: 21300130, guid: 6730c94bc386b43579ef84dc9dd524d0, type: 3}
    - time: 2.26666594
      value: {fileID: 21300132, guid: 6730c94bc386b43579ef84dc9dd524d0, type: 3}
    - time: 2.29999924
      value: {fileID: 21300134, guid: 6730c94bc386b43579ef84dc9dd524d0, type: 3}
    - time: 2.33333254
      value: {fileID: 21300136, guid: 6730c94bc386b43579ef84dc9dd524d0, type: 3}
    - time: 2.36666584
      value: {fileID: 21300138, guid: 6730c94bc386b43579ef84dc9dd524d0, type: 3}
    - time: 2.39999914
      value: {fileID: 21300140, guid: 6730c94bc386b43579ef84dc9dd524d0, type: 3}
    - time: 2.43333244
      value: {fileID: 21300142, guid: 6730c94bc386b43579ef84dc9dd524d0, type: 3}
    - time: 2.46666574
      value: {fileID: 21300144, guid: 6730c94bc386b43579ef84dc9dd524d0, type: 3}
    - time: 2.49999905
      value: {fileID: 21300146, guid: 6730c94bc386b43579ef84dc9dd524d0, type: 3}
    - time: 2.53333235
      value: {fileID: 21300148, guid: 6730c94bc386b43579ef84dc9dd524d0, type: 3}
    - time: 2.56666565
      value: {fileID: 21300150, guid: 6730c94bc386b43579ef84dc9dd524d0, type: 3}
    - time: 2.59999895
      value: {fileID: 21300152, guid: 6730c94bc386b43579ef84dc9dd524d0, type: 3}
    - time: 2.63333225
      value: {fileID: 21300154, guid: 6730c94bc386b43579ef84dc9dd524d0, type: 3}
    - time: 2.66666555
      value: {fileID: 21300156, guid: 6730c94bc386b43579ef84dc9dd524d0, type: 3}
    - time: 2.69999886
      value: {fileID: 21300158, guid: 6730c94bc386b43579ef84dc9dd524d0, type: 3}
    attribute: m_Sprite
    path: 
    classID: 114
    script: {fileID: -765806418, guid: f5f67c52d1564df4a8936ccd202a3bd8, type: 3}
  m_SampleRate: 30
  m_WrapMode: 0
  m_Bounds:
    m_Center: {x: 0, y: 0, z: 0}
    m_Extent: {x: 0, y: 0, z: 0}
  m_ClipBindingConstant:
    genericBindings:
    - path: 0
      attribute: 2015549526
      script: {fileID: -765806418, guid: f5f67c52d1564df4a8936ccd202a3bd8, type: 3}
      classID: 114
      customType: 0
      isPPtrCurve: 1
    pptrCurveMapping:
    - {fileID: 21300000, guid: f231fbccb262f42f8ab047c825dc7810, type: 3}
    - {fileID: 21300000, guid: 6730c94bc386b43579ef84dc9dd524d0, type: 3}
    - {fileID: 21300002, guid: 6730c94bc386b43579ef84dc9dd524d0, type: 3}
    - {fileID: 21300004, guid: 6730c94bc386b43579ef84dc9dd524d0, type: 3}
    - {fileID: 21300006, guid: 6730c94bc386b43579ef84dc9dd524d0, type: 3}
    - {fileID: 21300008, guid: 6730c94bc386b43579ef84dc9dd524d0, type: 3}
    - {fileID: 21300010, guid: 6730c94bc386b43579ef84dc9dd524d0, type: 3}
    - {fileID: 21300012, guid: 6730c94bc386b43579ef84dc9dd524d0, type: 3}
    - {fileID: 21300014, guid: 6730c94bc386b43579ef84dc9dd524d0, type: 3}
    - {fileID: 21300016, guid: 6730c94bc386b43579ef84dc9dd524d0, type: 3}
    - {fileID: 21300018, guid: 6730c94bc386b43579ef84dc9dd524d0, type: 3}
    - {fileID: 21300020, guid: 6730c94bc386b43579ef84dc9dd524d0, type: 3}
    - {fileID: 21300022, guid: 6730c94bc386b43579ef84dc9dd524d0, type: 3}
    - {fileID: 21300024, guid: 6730c94bc386b43579ef84dc9dd524d0, type: 3}
    - {fileID: 21300026, guid: 6730c94bc386b43579ef84dc9dd524d0, type: 3}
    - {fileID: 21300028, guid: 6730c94bc386b43579ef84dc9dd524d0, type: 3}
    - {fileID: 21300030, guid: 6730c94bc386b43579ef84dc9dd524d0, type: 3}
    - {fileID: 21300032, guid: 6730c94bc386b43579ef84dc9dd524d0, type: 3}
    - {fileID: 21300034, guid: 6730c94bc386b43579ef84dc9dd524d0, type: 3}
    - {fileID: 21300036, guid: 6730c94bc386b43579ef84dc9dd524d0, type: 3}
    - {fileID: 21300038, guid: 6730c94bc386b43579ef84dc9dd524d0, type: 3}
    - {fileID: 21300040, guid: 6730c94bc386b43579ef84dc9dd524d0, type: 3}
    - {fileID: 21300042, guid: 6730c94bc386b43579ef84dc9dd524d0, type: 3}
    - {fileID: 21300044, guid: 6730c94bc386b43579ef84dc9dd524d0, type: 3}
    - {fileID: 21300046, guid: 6730c94bc386b43579ef84dc9dd524d0, type: 3}
    - {fileID: 21300048, guid: 6730c94bc386b43579ef84dc9dd524d0, type: 3}
    - {fileID: 21300050, guid: 6730c94bc386b43579ef84dc9dd524d0, type: 3}
    - {fileID: 21300052, guid: 6730c94bc386b43579ef84dc9dd524d0, type: 3}
    - {fileID: 21300054, guid: 6730c94bc386b43579ef84dc9dd524d0, type: 3}
    - {fileID: 21300056, guid: 6730c94bc386b43579ef84dc9dd524d0, type: 3}
    - {fileID: 21300058, guid: 6730c94bc386b43579ef84dc9dd524d0, type: 3}
    - {fileID: 21300060, guid: 6730c94bc386b43579ef84dc9dd524d0, type: 3}
    - {fileID: 21300062, guid: 6730c94bc386b43579ef84dc9dd524d0, type: 3}
    - {fileID: 21300064, guid: 6730c94bc386b43579ef84dc9dd524d0, type: 3}
    - {fileID: 21300066, guid: 6730c94bc386b43579ef84dc9dd524d0, type: 3}
    - {fileID: 21300068, guid: 6730c94bc386b43579ef84dc9dd524d0, type: 3}
    - {fileID: 21300070, guid: 6730c94bc386b43579ef84dc9dd524d0, type: 3}
    - {fileID: 21300072, guid: 6730c94bc386b43579ef84dc9dd524d0, type: 3}
    - {fileID: 21300074, guid: 6730c94bc386b43579ef84dc9dd524d0, type: 3}
    - {fileID: 21300076, guid: 6730c94bc386b43579ef84dc9dd524d0, type: 3}
    - {fileID: 21300078, guid: 6730c94bc386b43579ef84dc9dd524d0, type: 3}
    - {fileID: 21300080, guid: 6730c94bc386b43579ef84dc9dd524d0, type: 3}
    - {fileID: 21300082, guid: 6730c94bc386b43579ef84dc9dd524d0, type: 3}
    - {fileID: 21300084, guid: 6730c94bc386b43579ef84dc9dd524d0, type: 3}
    - {fileID: 21300086, guid: 6730c94bc386b43579ef84dc9dd524d0, type: 3}
    - {fileID: 21300088, guid: 6730c94bc386b43579ef84dc9dd524d0, type: 3}
    - {fileID: 21300090, guid: 6730c94bc386b43579ef84dc9dd524d0, type: 3}
    - {fileID: 21300092, guid: 6730c94bc386b43579ef84dc9dd524d0, type: 3}
    - {fileID: 21300094, guid: 6730c94bc386b43579ef84dc9dd524d0, type: 3}
    - {fileID: 21300096, guid: 6730c94bc386b43579ef84dc9dd524d0, type: 3}
    - {fileID: 21300098, guid: 6730c94bc386b43579ef84dc9dd524d0, type: 3}
    - {fileID: 21300100, guid: 6730c94bc386b43579ef84dc9dd524d0, type: 3}
    - {fileID: 21300102, guid: 6730c94bc386b43579ef84dc9dd524d0, type: 3}
    - {fileID: 21300104, guid: 6730c94bc386b43579ef84dc9dd524d0, type: 3}
    - {fileID: 21300106, guid: 6730c94bc386b43579ef84dc9dd524d0, type: 3}
    - {fileID: 21300108, guid: 6730c94bc386b43579ef84dc9dd524d0, type: 3}
    - {fileID: 21300110, guid: 6730c94bc386b43579ef84dc9dd524d0, type: 3}
    - {fileID: 21300112, guid: 6730c94bc386b43579ef84dc9dd524d0, type: 3}
    - {fileID: 21300114, guid: 6730c94bc386b43579ef84dc9dd524d0, type: 3}
    - {fileID: 21300116, guid: 6730c94bc386b43579ef84dc9dd524d0, type: 3}
    - {fileID: 21300118, guid: 6730c94bc386b43579ef84dc9dd524d0, type: 3}
    - {fileID: 21300120, guid: 6730c94bc386b43579ef84dc9dd524d0, type: 3}
    - {fileID: 21300122, guid: 6730c94bc386b43579ef84dc9dd524d0, type: 3}
    - {fileID: 21300124, guid: 6730c94bc386b43579ef84dc9dd524d0, type: 3}
    - {fileID: 21300126, guid: 6730c94bc386b43579ef84dc9dd524d0, type: 3}
    - {fileID: 21300128, guid: 6730c94bc386b43579ef84dc9dd524d0, type: 3}
    - {fileID: 21300130, guid: 6730c94bc386b43579ef84dc9dd524d0, type: 3}
    - {fileID: 21300132, guid: 6730c94bc386b43579ef84dc9dd524d0, type: 3}
    - {fileID: 21300134, guid: 6730c94bc386b43579ef84dc9dd524d0, type: 3}
    - {fileID: 21300136, guid: 6730c94bc386b43579ef84dc9dd524d0, type: 3}
    - {fileID: 21300138, guid: 6730c94bc386b43579ef84dc9dd524d0, type: 3}
    - {fileID: 21300140, guid: 6730c94bc386b43579ef84dc9dd524d0, type: 3}
    - {fileID: 21300142, guid: 6730c94bc386b43579ef84dc9dd524d0, type: 3}
    - {fileID: 21300144, guid: 6730c94bc386b43579ef84dc9dd524d0, type: 3}
    - {fileID: 21300146, guid: 6730c94bc386b43579ef84dc9dd524d0, type: 3}
    - {fileID: 21300148, guid: 6730c94bc386b43579ef84dc9dd524d0, type: 3}
    - {fileID: 21300150, guid: 6730c94bc386b43579ef84dc9dd524d0, type: 3}
    - {fileID: 21300152, guid: 6730c94bc386b43579ef84dc9dd524d0, type: 3}
    - {fileID: 21300154, guid: 6730c94bc386b43579ef84dc9dd524d0, type: 3}
    - {fileID: 21300156, guid: 6730c94bc386b43579ef84dc9dd524d0, type: 3}
    - {fileID: 21300158, guid: 6730c94bc386b43579ef84dc9dd524d0, type: 3}
  m_AnimationClipSettings:
    serializedVersion: 2
    m_StartTime: 0
    m_StopTime: 2.73333216
    m_OrientationOffsetY: 0
    m_Level: 0
    m_CycleOffset: 0
    m_LoopTime: 1
    m_LoopBlend: 0
    m_LoopBlendOrientation: 0
    m_LoopBlendPositionY: 0
    m_LoopBlendPositionXZ: 0
    m_KeepOriginalOrientation: 0
    m_KeepOriginalPositionY: 1
    m_KeepOriginalPositionXZ: 0
    m_HeightFromFeet: 0
    m_Mirror: 0
  m_EditorCurves: []
  m_EulerEditorCurves: []
  m_Events: []
