%YAML 1.1
%TAG !u! tag:unity3d.com,2011:
--- !u!21 &2100000
Material:
  serializedVersion: 3
  m_ObjectHideFlags: 0
  m_PrefabParentObject: {fileID: 0}
  m_PrefabInternal: {fileID: 0}
  m_Name: Slingshot02
  m_Shader: {fileID: 4800000, guid: 05623b9c7970ab748848f2dacd0bfe31, type: 3}
  m_ShaderKeywords: []
  m_CustomRenderQueue: -1
  m_SavedProperties:
    serializedVersion: 2
    m_TexEnvs:
      data:
        first:
          name: _MainTex
        second:
          m_Texture: {fileID: 0}
          m_Scale: {x: 1, y: 1}
          m_Offset: {x: 0, y: 0}
      data:
        first:
          name: _BumpMap
        second:
          m_Texture: {fileID: 0}
          m_Scale: {x: 1, y: 1}
          m_Offset: {x: 0, y: 0}
      data:
        first:
          name: _DiffCubeIBL
        second:
          m_Texture: {fileID: 8900000, guid: d2d70c9a1d73d4347b7355d5c3bdde55, type: 2}
          m_Scale: {x: 1, y: 1}
          m_Offset: {x: 0, y: 0}
      data:
        first:
          name: _SpecCubeIBL
        second:
          m_Texture: {fileID: 8900000, guid: 7e2c9fd4c91414594a9b324253e40fc3, type: 2}
          m_Scale: {x: 1, y: 1}
          m_Offset: {x: 0, y: 0}
      data:
        first:
          name: _SpecTex
        second:
          m_Texture: {fileID: 0}
          m_Scale: {x: 1, y: 1}
          m_Offset: {x: 0, y: 0}
      data:
        first:
          name: _Cube
        second:
          m_Texture: {fileID: 0}
          m_Scale: {x: 1, y: 1}
          m_Offset: {x: 0, y: 0}
      data:
        first:
          name: _Spec_Gloss_Reflec_Masks
        second:
          m_Texture: {fileID: 0}
          m_Scale: {x: 1, y: 1}
          m_Offset: {x: 0, y: 0}
      data:
        first:
          name: _Illum
        second:
          m_Texture: {fileID: 0}
          m_Scale: {x: 1, y: 1}
          m_Offset: {x: 0, y: 0}
      data:
        first:
          name: _Mask
        second:
          m_Texture: {fileID: 0}
          m_Scale: {x: 1, y: 1}
          m_Offset: {x: 0, y: 0}
    m_Floats:
      data:
        first:
          name: _Reflection
        second: 0
      data:
        first:
          name: _Shininess
        second: .00999999978
      data:
        first:
          name: _SpecInt
        second: .660000026
      data:
        first:
          name: _Fresnel
        second: 0
      data:
        first:
          name: _Gloss
        second: 0
      data:
        first:
          name: _FrezPow
        second: 0
      data:
        first:
          name: _FrezFalloff
        second: 0
      data:
        first:
          name: _EdgeAlpha
        second: 0
      data:
        first:
          name: _Metalics
        second: 0
      data:
        first:
          name: _GlowStrength
        second: 1
      data:
        first:
          name: _EmissionLM
        second: 0
      data:
        first:
          name: _Focus
        second: -100
    m_Colors:
      data:
        first:
          name: _Color
        second: {r: 0, g: .484939367, b: .963235319, a: 1}
      data:
        first:
          name: _SpecColor
        second: {r: 1, g: 1, b: 1, a: 1}
      data:
        first:
          name: _GlowColor
        second: {r: 1, g: 1, b: 1, a: 1}
      data:
        first:
          name: _Specular
        second: {r: 0, g: 0, b: 0, a: 0}
