%YAML 1.1
%TAG !u! tag:unity3d.com,2011:
--- !u!21 &2100000
Material:
  serializedVersion: 3
  m_ObjectHideFlags: 0
  m_PrefabParentObject: {fileID: 0}
  m_PrefabInternal: {fileID: 0}
  m_Name: TestMat_Metal_BronzeDark
  m_Shader: {fileID: 4800000, guid: e29db0cb80a450b4bb78fed8ba9eb5d8, type: 3}
  m_ShaderKeywords: []
  m_CustomRenderQueue: -1
  m_SavedProperties:
    serializedVersion: 2
    m_TexEnvs:
      data:
        first:
          name: _MainTex
        second:
          m_Texture: {fileID: 2800000, guid: e5d11edbb5951ac42b277b4302e956c5, type: 3}
          m_Scale: {x: 2, y: 2}
          m_Offset: {x: 0, y: 0}
      data:
        first:
          name: _BumpMap
        second:
          m_Texture: {fileID: 0}
          m_Scale: {x: 2, y: 2}
          m_Offset: {x: 0, y: 0}
      data:
        first:
          name: _Detail
        second:
          m_Texture: {fileID: 0}
          m_Scale: {x: 1, y: 1}
          m_Offset: {x: 0, y: 0}
      data:
        first:
          name: _Cube
        second:
          m_Texture: {fileID: 8900000, guid: 05f65a420e96e9247ad0d1398c40447d, type: 2}
          m_Scale: {x: 1, y: 1}
          m_Offset: {x: 0, y: 0}
      data:
        first:
          name: _Spec_Gloss_Reflec_Masks
        second:
          m_Texture: {fileID: 2800000, guid: 76d6e04878062254c9b88ae1574d6077, type: 3}
          m_Scale: {x: 1, y: 1}
          m_Offset: {x: 0, y: 0}
      data:
        first:
          name: _Diffuse
        second:
          m_Texture: {fileID: 2800000, guid: 19555d7d9d114c7f1100f5ab44295342, type: 3}
          m_Scale: {x: 1, y: 1}
          m_Offset: {x: 0, y: 0}
    m_Floats:
      data:
        first:
          name: _Reflection
        second: .0298507456
      data:
        first:
          name: _Shininess
        second: .0992538407
      data:
        first:
          name: _Gloss
        second: 1
      data:
        first:
          name: _FrezPow
        second: 1024
      data:
        first:
          name: _FrezFalloff
        second: .298507452
      data:
        first:
          name: _EdgeAlpha
        second: 0
      data:
        first:
          name: _Metalics
        second: 1
      data:
        first:
          name: _Density
        second: .350746274
      data:
        first:
          name: _Bounds
        second: 1
      data:
        first:
          name: _ReflectionStrength
        second: .400000006
      data:
        first:
          name: _ReflectPower
        second: .400000006
    m_Colors:
      data:
        first:
          name: _Color
        second: {r: .556862772, g: .269900084, b: 0, a: 0}
      data:
        first:
          name: _SpecColor
        second: {r: .882352948, g: .623540998, b: .204152241, a: 1}
      data:
        first:
          name: _ReflectColor
        second: {r: 1, g: 1, b: 1, a: .5}
--- !u!1002 &2100001
EditorExtensionImpl:
  serializedVersion: 6
