%YAML 1.1
%TAG !u! tag:unity3d.com,2011:
--- !u!21 &2100000
Material:
  serializedVersion: 3
  m_ObjectHideFlags: 0
  m_PrefabParentObject: {fileID: 0}
  m_PrefabInternal: {fileID: 0}
  m_Name: TestMat_Metal_CastIronGreen
  m_Shader: {fileID: 4800000, guid: e29db0cb80a450b4bb78fed8ba9eb5d8, type: 3}
  m_ShaderKeywords: []
  m_CustomRenderQueue: -1
  m_SavedProperties:
    serializedVersion: 2
    m_TexEnvs:
      data:
        first:
          name: _MainTex
        second:
          m_Texture: {fileID: 2800000, guid: 24c5c26b339ef7c46a9862aed19fab4f, type: 3}
          m_Scale: {x: 1, y: 1}
          m_Offset: {x: 0, y: 0}
      data:
        first:
          name: _BumpMap
        second:
          m_Texture: {fileID: 2800000, guid: 9d6f855c147cee24b958645d059fd20e, type: 3}
          m_Scale: {x: 1, y: 1}
          m_Offset: {x: 0, y: 0}
      data:
        first:
          name: _Cube
        second:
          m_Texture: {fileID: 8900000, guid: 05f65a420e96e9247ad0d1398c40447d, type: 2}
          m_Scale: {x: 1, y: 1}
          m_Offset: {x: 0, y: 0}
      data:
        first:
          name: _Spec_Gloss_Reflec_Masks
        second:
          m_Texture: {fileID: 2800000, guid: c0cabc48185136441bb70f91fb5738cc, type: 3}
          m_Scale: {x: 1, y: 1}
          m_Offset: {x: 0, y: 0}
      data:
        first:
          name: _Diffuse
        second:
          m_Texture: {fileID: 0}
          m_Scale: {x: 1, y: 1}
          m_Offset: {x: 0, y: 0}
    m_Floats:
      data:
        first:
          name: _Reflection
        second: .716417909
      data:
        first:
          name: _Shininess
        second: 2.95537305
      data:
        first:
          name: _Gloss
        second: .432835847
      data:
        first:
          name: _FrezPow
        second: 1024
      data:
        first:
          name: _FrezFalloff
        second: 2.23880601
      data:
        first:
          name: _EdgeAlpha
        second: 0
      data:
        first:
          name: _Metalics
        second: .522388041
      data:
        first:
          name: _Density
        second: -.119925372
      data:
        first:
          name: _Bounds
        second: 1
      data:
        first:
          name: _RefScale
        second: 1
    m_Colors:
      data:
        first:
          name: _Color
        second: {r: .118754327, g: .211764708, b: .139480874, a: 1}
      data:
        first:
          name: _SpecColor
        second: {r: .909803927, g: 1, b: .97211206, a: 1}
      data:
        first:
          name: _ReflectColor
        second: {r: 1, g: 1, b: 1, a: .5}
--- !u!1002 &2100001
EditorExtensionImpl:
  serializedVersion: 6
