%YAML 1.1
%TAG !u! tag:unity3d.com,2011:
--- !u!21 &2100000
Material:
  serializedVersion: 3
  m_ObjectHideFlags: 0
  m_PrefabParentObject: {fileID: 0}
  m_PrefabInternal: {fileID: 0}
  m_Name: TestMat_Metal_Chrome
  m_Shader: {fileID: 4800000, guid: 72666ef1dd3f87b4f9cf7cee15baaf8c, type: 3}
  m_ShaderKeywords: []
  m_CustomRenderQueue: -1
  m_SavedProperties:
    serializedVersion: 2
    m_TexEnvs:
      data:
        first:
          name: _MainTex
        second:
          m_Texture: {fileID: 2800000, guid: f8e2f17351cf714448735bf436fcb29e, type: 3}
          m_Scale: {x: 1, y: 1}
          m_Offset: {x: 0, y: 0}
      data:
        first:
          name: _BumpMap
        second:
          m_Texture: {fileID: 2800000, guid: fb76092029cc6b64293a221ef4141fe9, type: 3}
          m_Scale: {x: 1, y: 1}
          m_Offset: {x: 0, y: 0}
      data:
        first:
          name: _Cube
        second:
          m_Texture: {fileID: 8900000, guid: 05f65a420e96e9247ad0d1398c40447d, type: 2}
          m_Scale: {x: 1, y: 1}
          m_Offset: {x: 0, y: 0}
      data:
        first:
          name: _Spec_Gloss_Reflec_Masks
        second:
          m_Texture: {fileID: 0}
          m_Scale: {x: 1, y: 1}
          m_Offset: {x: 0, y: 0}
      data:
        first:
          name: _Diffuse
        second:
          m_Texture: {fileID: 0}
          m_Scale: {x: 1, y: 1}
          m_Offset: {x: 0, y: 0}
    m_Floats:
      data:
        first:
          name: _Reflection
        second: .194029853
      data:
        first:
          name: _Shininess
        second: .813283563
      data:
        first:
          name: _Gloss
        second: .582089543
      data:
        first:
          name: _FrezPow
        second: 1024
      data:
        first:
          name: _FrezFalloff
        second: .298507422
      data:
        first:
          name: _EdgeAlpha
        second: 0
      data:
        first:
          name: _Metalics
        second: .567164183
      data:
        first:
          name: _Density
        second: -.119925372
      data:
        first:
          name: _Bounds
        second: 1
      data:
        first:
          name: _RefScale
        second: 1
    m_Colors:
      data:
        first:
          name: _Color
        second: {r: .721568644, g: .721568644, b: .721568644, a: 1}
      data:
        first:
          name: _SpecColor
        second: {r: 1, g: 1, b: 1, a: 1}
      data:
        first:
          name: _ReflectColor
        second: {r: 1, g: 1, b: 1, a: .5}
--- !u!1002 &2100001
EditorExtensionImpl:
  serializedVersion: 6
